{
  "data": [
    {
      "id": "550e8400-e29b-41d4-a716-446655440000",
      "name": "John Doe",
      "email": "john@example.com"
    },
    {
      "id": "660e8400-e29b-41d4-a716-446655440001", 
      "name": "Jane Smith",
      "email": "jane@example.com"
    }
  ],
  "meta": {
    "current_page": 1,
    "per_page": 15,
    "total": 100,
    "count": 2,
    "total_pages": 7,
    "links": {
      "self": "https://api.example.com/users?page=1",
      "first": "https://api.example.com/users?page=1",
      "last": "https://api.example.com/users?page=7",
      "prev": null,
      "next": "https://api.example.com/users?page=2"
    }
  }
}